Vinicius Oike - Finding All Starbucks in Brazil
…
dim_city = geobr::read_municipality(showProgress = FALSE)
dim_city = st_transform(dim_city, crs = 4326)
sf::sf_use_s2(FALSE)

starbucks = starbucks %>%
  st_join(dim_city) %>%
  relocate(c(name_muni, abbrev_state), .before = lat)

Now we can see which cities have the most Starbucks locations.

starbucks %>%
  st_drop_geometry() %>%
  count(name_muni, abbrev_state, sort = TRUE) 

# A tibble: 43 × 3
   name_muni      abbrev_state     n
   <chr>          <chr>        <int>
 1 São Paulo      SP              45
 2 Rio De Janeiro RJ              11
 3 Guarulhos      SP               9
 4 Curitiba       PR               8
 5 Brasília       DF               6
 6 Campinas       SP               6
 7 Florianópolis  SC               5
 8 Jundiaí        SP               4
 9 Porto Alegre   RS               4
10 Ribeirão Preto SP               3
# ℹ 33 more rows
…
