Vinicius Oike - Crescimento do Brasil em contexto
…
Para facilitar a vida, recomendo muito o pacote {countrycode}, que descobri recentemente. O pacote permite que você traduza o nome de países e troque entre códigos (iso2c, iso3c) e nomes completos.

O Banco Mundial agrupa os países em 4 faixas de renda: países de renda baixa, renda média-baixa, renda média-alta e renda alta2. As linhas divisórias que separam cada um dos grupos variam de ano a ano, mas grosso modo, o valor do PIB per capita que separa um país de renda média-baixa para um país de renda média-alta é em torno de US$4000.

Neste post quero ver como é a trajetória de crescimento dos países logo após este ponto: como que crescem os países recém inclusos ao time de renda média-alta.

Para encontrar o ano no qual cada país superou a marca dos US$4000 eu calculo a distância absoluta entre o PIBpc de cada ano e este valor. Como o crescimento de um país pode oscilar, é possível que algum país ultrapasse esta marca, entre em recessão e depois ultrapasse esta marca novamente.

No código abaixo eu encontro os cinco “momentos” em que o PIBpc esteve o mais próximo de US$4000 e seleciono o que aconteceu o mais no passado possível.

Em qual ano cada país da América Latina ultrapassou a marca dos US$4000? Entre os países que já não estavam acima desta marca, os primeiros a chegar lá foram Chile e Nicarágua, em 1951.

Como a base do PWT começa em 1950, muitos dos países desenvolvidos já tinham um PIB per capita acima de US$4000 nesta época.

# A tibble: 36 × 4
   isocode base_year pais                  cont    
   <fct>       <int> <chr>                 <chr>   
 1 CHL          1951 Chile                 Americas
 2 NIC          1951 Nicarágua             Americas
 3 JAM          1953 Jamaica               Americas
 4 COL          1954 Colômbia              Americas
 5 ECU          1954 Equador               Americas
 6 BRB          1960 Barbados              Americas
 7 PAN          1964 Panamá                Americas
 8 BRA          1968 Brasil                Americas
 9 ARG          1969 Argentina             Americas
10 ABW          1970 Aruba                 Americas
11 AIA          1970 Anguila               Americas
12 ATG          1970 Antígua e Barbuda     Americas
13 BLZ          1970 Belize                Americas
14 CYM          1970 Ilhas Cayman          Americas
15 DMA          1970 Dominica              Americas
16 GUY          1970 Guiana                Americas
17 KNA          1970 São Cristóvão e Névis Americas
18 LCA          1970 Santa Lúcia           Americas
19 MSR          1970 Montserrat            Americas
20 SUR          1970 Suriname              Americas
# ℹ 16 more rows
…
