O novo tidyverse: mutate – Vinicius Oike
…
Grupos

A expressão mutate sempre é aplicada dentro de grupos. No caso em que não existe um grupo, a expressão é aplicada para todos os dados disponíveis. O código abaixo, por exemplo, encontra a participação percentual do PIB de cada município no PIB brasileiro.

tbl |> 
  select(name_muni, abbrev_state, pib) |> 
  mutate(pib_share = pib / sum(pib) * 100) |> 
  arrange(desc(pib_share))

# A tibble: 5,570 × 4
   name_muni      abbrev_state       pib pib_share
   <chr>          <chr>            <dbl>     <dbl>
 1 São Paulo      SP           748759007     9.84 
 2 Rio de Janeiro RJ           331279902     4.35 
 3 Brasília       DF           265847334     3.49 
 4 Belo Horizonte MG            97509893     1.28 
 5 Manaus         AM            91768773     1.21 
 6 Curitiba       PR            88308728     1.16 
 7 Osasco         SP            76311814     1.00 
 8 Porto Alegre   RS            76074563     1.00 
 9 Guarulhos      SP            65849311     0.865
10 Campinas       SP            65419717     0.860
# ℹ 5,560 more rows

Já este segundo código encontra a participação percentual do PIB de cada município dentro do seu respectivo estado.

tbl |> 
  select(name_muni, abbrev_state, pib) |> 
  mutate(pib_share = pib / sum(pib) * 100, .by = "abbrev_state") |> 
  arrange(desc(pib_share))

# A tibble: 5,570 × 4
   name_muni      abbrev_state       pib pib_share
   <chr>          <chr>            <dbl>     <dbl>
 1 Brasília       DF           265847334     100  
 2 Manaus         AM            91768773      79.1
 3 Boa Vista      RR            11826207      73.8
 4 Macapá         AP            11735557      63.5
 5 Rio Branco     AC             9579592      58.1
 6 Rio de Janeiro RJ           331279902      43.9
 7 Fortaleza      CE            65160893      39.0
 8 Teresina       PI            21578875      38.3
 9 Porto Velho    RO            19448762      37.7
10 Aracaju        SE            16447105      36.2
# ℹ 5,560 more rows
…
Outros argumentos

A função mutate tem alguns outros argumentos, de uso diverso. Os argumentos .before e .after permitem selecionar a posição das novas colunas. O padrão da função é de sempre adicionar as novas colunas ao final do data.frame. Estes argumentos aceitam o nome de alguma das colunas ou mesmo funções tidyselect. No caso abaixo, cria-se a coluna lpib que é posta no início do data.frame.

tbl |> 
  mutate(
    lpib = log(pib),
    .before = everything()
  ) |> 
  select(1:5)

# A tibble: 5,570 × 5
    lpib code_muni name_muni             code_state name_state
   <dbl>     <dbl> <chr>                      <dbl> <chr>     
 1  13.3   1100015 Alta Floresta D'Oeste         11 Rondônia  
 2  14.9   1100023 Ariquemes                     11 Rondônia  
 3  12.0   1100031 Cabixi                        11 Rondônia  
 4  14.7   1100049 Cacoal                        11 Rondônia  
 5  13.3   1100056 Cerejeiras                    11 Rondônia  
 6  12.8   1100064 Colorado do Oeste             11 Rondônia  
 7  12.5   1100072 Corumbiara                    11 Rondônia  
 8  12.5   1100080 Costa Marques                 11 Rondônia  
 9  13.4   1100098 Espigão D'Oeste               11 Rondônia  
10  13.8   1100106 Guajará-Mirim                 11 Rondônia  
# ℹ 5,560 more rows

O outro argumento opcional é o .keep que permite controlar quais colunas devem ser preservadas após a aplicação da função mutate. O padrão da função, naturalmente, é de preservar todas as colunas, isto é, .keep = "all". Contudo, pode-se usar .keep = "used" para manter somente as colunas que foram utilizadas.

tbl |> 
  mutate(
    code_muni = as.character(code_muni),
    lpib = log(pib),
    .keep = "used"
    )

# A tibble: 5,570 × 3
   code_muni     pib  lpib
   <chr>       <dbl> <dbl>
 1 1100015    570272  13.3
 2 1100023   2818049  14.9
 3 1100031    167190  12.0
 4 1100049   2519353  14.7
 5 1100056    600670  13.3
 6 1100064    366931  12.8
 7 1100072    268381  12.5
 8 1100080    261978  12.5
 9 1100098    666331  13.4
10 1100106    984586  13.8
# ℹ 5,560 more rows

Vale notar que .keep = "used" sempre preserva as colunas “agrupadoras”.

tbl |> 
  mutate(
    code_muni = as.character(code_muni),
    lpib = log(pib),
    .by = "code_state",
    .keep = "used"
    )

# A tibble: 5,570 × 4
   code_muni code_state     pib  lpib
   <chr>          <dbl>   <dbl> <dbl>
 1 1100015           11  570272  13.3
 2 1100023           11 2818049  14.9
 3 1100031           11  167190  12.0
 4 1100049           11 2519353  14.7
 5 1100056           11  600670  13.3
 6 1100064           11  366931  12.8
 7 1100072           11  268381  12.5
 8 1100080           11  261978  12.5
 9 1100098           11  666331  13.4
10 1100106           11  984586  13.8
# ℹ 5,560 more rows
…
