Vinicius Oike - Encontrando todos os Starbucks do Brasil
…
clean_dat

# A tibble: 142 × 5
   index name                            
   <dbl> <chr>                           
 1     0 Shopping Top Center             
 2     1 Shopping Cidade São Paulo       
 3     2 Paulista Trianon                
 4     3 Paulista 500                    
 5     4 Jardim Pamplona Shopping        
 6     5 Shopping Patio Paulista         
 7     6 Shopping Center 3               
 8     7 Hospital Beneficência Portuguesa
 9     8 Eliseu Guilherme                
10     9 Haddock Lobo                    
   street                                    lat   lng
   <chr>                                   <dbl> <dbl>
 1 Avenida Paulista, 854                   -23.6 -46.7
 2 Avenida Paulista, 1154                  -23.6 -46.7
 3 Avenida Paulista, 1499                  -23.6 -46.7
 4 Avenida Paulista, 500                   -23.6 -46.6
 5 Rua Pamplona, 1704                      -23.6 -46.7
 6 Rua Treze de Maio, 1933                 -23.6 -46.6
 7 Avenida Paulista, 2064                  -23.6 -46.7
 8 Rua Maestro Cardim, 769                 -23.6 -46.6
 9 Rua Desembargador Eliseu Guilherme, 200 -23.6 -46.6
10 Rua Haddock Lobo, 608                   -23.6 -46.7
# ℹ 132 more rows
…
dim_city = geobr::read_municipality(showProgress = FALSE)
dim_city = st_transform(dim_city, crs = 4326)
sf::sf_use_s2(FALSE)

starbucks = starbucks %>%
  st_join(dim_city) %>%
  relocate(c(name_muni, abbrev_state), .before = lat)

Agora podemos ver quais cidades tem mais Starbucks.

starbucks %>%
  st_drop_geometry() %>%
  count(name_muni, abbrev_state, sort = TRUE) 

# A tibble: 43 × 3
   name_muni      abbrev_state     n
   <chr>          <chr>        <int>
 1 São Paulo      SP              45
 2 Rio De Janeiro RJ              11
 3 Guarulhos      SP               9
 4 Curitiba       PR               8
 5 Brasília       DF               6
 6 Campinas       SP               6
 7 Florianópolis  SC               5
 8 Jundiaí        SP               4
 9 Porto Alegre   RS               4
10 Ribeirão Preto SP               3
# ℹ 33 more rows
…
