Vinicius Oike - Pacotes Essenciais R
…
# A tibble: 5 × 6
  `1940` `1945` `1950` `1955` `1960` variable           
   <dbl>  <dbl>  <dbl>  <dbl>  <dbl> <chr>              
1 22.2   44.5    59.6    73.2  86.8  Food and Tobacco   
2 10.5   15.5    29      36.5  46.2  Household Operation
3  3.53   5.76    9.71   14    21.1  Medical and Health 
4  1.04   1.98    2.45    3.4   5.4  Personal Care      
5  0.341  0.974   1.8     2.6   3.64 Private Education  

# Exemplo de dado longitudinal
long <- pivot_longer(data, cols = !variable, names_to = "year")
long

# A tibble: 25 × 3
   variable            year  value
   <chr>               <chr> <dbl>
 1 Food and Tobacco    1940   22.2
 2 Food and Tobacco    1945   44.5
 3 Food and Tobacco    1950   59.6
 4 Food and Tobacco    1955   73.2
 5 Food and Tobacco    1960   86.8
 6 Household Operation 1940   10.5
 7 Household Operation 1945   15.5
 8 Household Operation 1950   29  
 9 Household Operation 1955   36.5
10 Household Operation 1960   46.2
# ℹ 15 more rows
…
