Vinicius Oike - O novo tidyverse: select
…
Como visto acima, pode-se selecionar colunas com base em um vetor de texto. Nos casos em que é necessário maior controle sobre a seleção, há duas funções auxiliares: any_of e all_of. A primeira função faz o match entre o vetor de texto e o nome das colunas e retorna todos os casos positivos; já a segunda função faz o match entre o vetor de texto e o nome das colunas e retorna um resultado somente no caso de todos os matches terem sucesso.

A diferença entre as funções fica mais evidente num exemplo. Considere o caso em que colocamos uma coluna adicional pib_per_capita que não existe na base de dados. Quando se usa a função all_of retorna-se todas as colunas onde o match teve sucesso.

sel_cols <- c("code_muni", "name_muni", "population", "pib", "pib_per_capita")

select(tbl, any_of(sel_cols))

# A tibble: 5,570 × 4
   code_muni name_muni             population     pib
       <dbl> <chr>                      <dbl>   <dbl>
 1   1100015 Alta Floresta D'Oeste      21495  570272
 2   1100023 Ariquemes                  96833 2818049
 3   1100031 Cabixi                      5363  167190
 4   1100049 Cacoal                     86895 2519353
 5   1100056 Cerejeiras                 15890  600670
 6   1100064 Colorado do Oeste          15663  366931
 7   1100072 Corumbiara                  7519  268381
 8   1100080 Costa Marques              12627  261978
 9   1100098 Espigão D'Oeste            29397  666331
10   1100106 Guajará-Mirim              39386  984586
# ℹ 5,560 more rows
…
