Vinicius Oike - Estético: Legendas, escalas e temas
…
txhousing %>%
  filter(year == 2010) %>%
  summarise(total = sum(sales), .by = "city") %>%
  arrange(desc(total))

# A tibble: 46 × 2
   city              total
   <chr>             <dbl>
 1 Houston           56807
 2 Dallas            42383
 3 Austin            19872
 4 San Antonio       18449
 5 Collin County     10703
 6 Fort Bend          8503
 7 Fort Worth         8238
 8 NE Tarrant County  6420
 9 Denton County      5953
10 Montgomery County  5941
# ℹ 36 more rows
…
