Vinicius Oike - Filtro de Hamilton
…
Para o caso específico de dados trimestrais, ele sugere uma formulação do tipo:

\[
y_{t} = \beta_0 + \beta_{1} y_{t-8} + \beta_{2} y_{t-9} + \beta_{3} y_{t-10} + \beta_{4} y_{t-11} + u_{t+h}
\]

Ou, alternativamente, um modelo ainda mais simples, em função apenas de \(y_{t-8}\) na forma:

\[
y_{t} = \beta_0 + \beta_{1} y_{t-8} + u_{t+h}
\]

De modo geral, Hamilton argumenta que este filtro garante a estacionaridade de séries, sendo elas tendência-estacionárias ou diferença-estacionárias. Mais detalhes sobre o filtro podem ser verificados no Working Paper.

# A tibble: 772 × 4
      id name_series trend    resid
   <dbl> <chr>       <dbl>    <dbl>
 1    12 gdp          7.53  0.0375 
 2    13 gdp          7.54  0.0440 
 3    14 gdp          7.57  0.0282 
 4    15 gdp          7.59  0.00113
 5    16 gdp          7.59 -0.0127 
 6    17 gdp          7.60 -0.0329 
 7    18 gdp          7.60 -0.0337 
 8    19 gdp          7.61 -0.0294 
 9    20 gdp          7.65 -0.0470 
10    21 gdp          7.66 -0.0289 
# ℹ 762 more rows

# A tibble: 784 × 4
      id name_series trend_rw resid_rw
   <dbl> <chr>          <dbl>    <dbl>
 1     9 gdp             7.46  0.0701 
 2    10 gdp             7.49  0.0416 
 3    11 gdp             7.53  0.0104 
 4    12 gdp             7.55  0.0254 
 5    13 gdp             7.56  0.0326 
 6    14 gdp             7.57  0.0241 
 7    15 gdp             7.59 -0.00190
 8    16 gdp             7.59 -0.0199 
 9    17 gdp             7.61 -0.0363 
10    18 gdp             7.61 -0.0356 
# ℹ 774 more rows
…
