Importando dados em PDF no R – Vinicius Oike
…
Tidy data

Por fim, vale notar que podemos melhorar ainda mais os dados acima. Na tabela acima, muitas das colunas são valores da variável “religião”; então podemos, transformar os dados em “tidy” convertendo-os em longitudinais da seguinte forma.

tab_religion = table_data |> 
  pivot_longer(
    cols = percent_christian:percent_jewish,
    names_to = "religion",
    values_to = "share"
    ) |> 
  mutate(religion = str_remove(religion, "(percent_)|(_religion)"))

tab_religion

# A tibble: 1,872 × 5
   name        iso3c country_population religion  share
   <chr>       <chr>              <dbl> <chr>     <dbl>
 1 Afghanistan AFG             31410000 christian   0.1
 2 Afghanistan AFG             31410000 muslim     99.7
 3 Afghanistan AFG             31410000 unaffil     0.1
 4 Afghanistan AFG             31410000 hindu       0.1
 5 Afghanistan AFG             31410000 buddhist    0.1
 6 Afghanistan AFG             31410000 folk        0.1
 7 Afghanistan AFG             31410000 other       0.1
 8 Afghanistan AFG             31410000 jewish      0.1
 9 Albania     ALB              3200000 christian  18  
10 Albania     ALB              3200000 muslim     80.3
# ℹ 1,862 more rows
…
