Vinicius Oike - Preços de Imóveis no Brasil
…
# A tibble: 191 × 6
   date       `IVG-R` FipeZap  IPCA `IGP-DI` `IGMI-R`
   <date>       <dbl>   <dbl> <dbl>    <dbl>    <dbl>
 1 2008-02-01    1.73   0.608 0.490    0.380       NA
 2 2008-03-01    3.51   1.66  0.972    1.08        NA
 3 2008-04-01    5.35   3.06  1.53     2.21        NA
 4 2008-05-01    7.23   4.44  2.33     4.14        NA
 5 2008-06-01    9.15   5.98  3.09     6.10        NA
 6 2008-07-01   11.1    7.41  3.63     7.29        NA
 7 2008-08-01   13.1    8.52  3.92     6.89        NA
 8 2008-09-01   15.2    9.63  4.19     7.27        NA
 9 2008-10-01   17.3   10.9   4.66     8.44        NA
10 2008-11-01   19.4   12.7   5.04     8.52        NA
# ℹ 181 more rows
…
